addressId,housenumber,housename,firstline,secondline,town,postcode
1,39,,Belleville Road,,London,SW11 6PR
2,37,,Belleville Road,,London,SW11 6PR
3,42,,Webbs Road,,London,SW11 9PR
4,12,,Salcott Road,,London,SW11 3RT
5,,Stoneybridge Cottage,Carhampton,,Minehead,TA24 6QT
