Id,place_name, county, country, grid_reference, latitude, longitude, postcode_area
1,Magpie Green,Suffolk,England,TM0778,52.36525,1.04627,IP22 1
2,Maguires Bridge,Fermanagh,Northern Ireland,H347391,54.3,-7.46667,BT94 4
3,Maida Vale,Westminster Greater London,England,TQ2582,51.52747,-0.19227,W9 2
4,Maiden Bradley,Wiltshire,England,ST8038,51.14543,-2.28014,BA12 7
5,Maiden Head,Somerset,England,ST5666,51.39586,-2.62663,BS41 8
6,Maiden Law,County Durham,England,NZ1749,54.84002,-1.72904,DH7 0
7,Maiden Newton,Dorset,England,SY5997,50.77566,-2.57576,DT2 0
8,Maiden Wells,Pembrokeshire,Wales,SR9799,51.65771,-4.92905,SA71 5
9,Maiden's Green,Berkshire,England,SU8972,51.44443,-0.71358,RG42 6
10,Maiden's Hall,Northumberland,England,NZ2398,55.28008,-1.63161,NE61 5
11,Maidenbower,West Sussex,England,TQ2935,51.10418,-0.15169,RH10 7
12,Maidencombe,Devon,England,SX9268,50.5064,-3.51732,TQ1 4
13,Maidenhall,Suffolk,England,TM1542,52.039,1.14069,IP2 8
14,Maidenhayne,Devon,England,SY2795,50.75455,-3.02914,EX13 8
15,Maidenhead,Berkshire,England,SU8781,51.52565,-0.74012,SL6 6
16,Maidenhead Court,Berkshire,England,SU9083,51.54315,-0.69638,SL6 8
17,Maidenpark,Falkirk,Scotland,NS9980,56.00687,-3.61331,EH51 0
18,Maidens,South Ayrshire,Scotland,NS2107,55.32906,-4.81537,KA26 9
19,Maidensgrave,Suffolk,England,TM2648,52.08847,1.30478,IP12 4
20,Maidensgrove,Oxfordshire,England,SU7288,51.5907,-0.95486,RG9 6
21,Maidenwell,Lincolnshire,England,TF3279,53.2959,-0.01343,LN11 8
22,Maidford,Northamptonshire,England,SP6052,52.16746,-1.11685,NN12 8
23,Maids' Moreton,Buckinghamshire,England,SP7035,52.01346,-0.97418,MK18 1
24,Maidstone,Kent,England,TQ7655,51.27132,0.52884,ME15 6
25,Maidwell,Northamptonshire,England,SP7476,52.38148,-0.90691,NN6 9
26,Mail,Shetland Islands,Scotland,HU4228,60.03906,-1.23896,ZE2 9
27,Mailand,Shetland Islands,Scotland,HP6001,60.69212,-0.89395,ZE2 9
28,Mailingsland,Scottish Borders,Scotland,NT2443,55.67909,-3.20219,EH45 8
29,Maindee,Newport,Wales,ST3288,51.59129,-2.97577,NP19 8
30,Maindy,Cardiff,Wales,ST1778,51.49939,-3.1899,CF14 3
31,Mainholm,South Ayrshire,Scotland,NS3721,55.46028,-4.5716,KA6 5
32,Mains,Cumbria,England,NY0724,54.60716,-3.43359,CA14 4
33,Mains of Ardestie,Angus,Scotland,NO5034,56.49996,-2.80568,DD5 4
34,Mains of Balgavies,Angus,Scotland,NO5351,56.65298,-2.76001,DD8 2
35,Mains of Grandhome,Aberdeen City,Scotland,NJ8912,57.20316,-2.17543,AB21 7
36,Mains of Gray,Dundee City,Scotland,NO3332,56.4799,-3.08127,DD2 5
37,Mains of Melgund,Angus,Scotland,NO5456,56.69799,-2.74459,DD9 6
38,Mains of Orchil,Perth and Kinross,Scotland,NN9064,56.7592,-3.79266,PH16 5
39,Mains of Usan,Angus,Scotland,NO7255,56.69042,-2.45057,DD10 9
40,Mainsforth,County Durham,England,NZ3131,54.67758,-1.51301,DL17 9
41,Mainsriddle,Dumfries and Galloway,Scotland,NX9456,54.89206,-3.64639,DG2 8
42,Mainstone,Shropshire,England,SO2787,52.48059,-3.06896,SY9 5
43,Maisemore,Gloucestershire,England,SO8121,51.89174,-2.27023,GL2 8
44,Maitland Park,Camden Greater London,England,TQ2884,51.54477,-0.14831,NW1 8
45,Major's Green,Worcestershire,England,SP1077,52.39542,-1.84712,B90 1
46,Makeney,Derbyshire,England,SK3544,52.99666,-1.47252,DE56 0
47,Malacleit,Na h-Eileanan an Iar,Scotland,NF7974,57.64597,-7.37415,HS6 5
48,Malborough,Devon,England,SX7039,50.24127,-3.81742,TQ7 3
49,Malcoff,Derbyshire,England,SK0782,53.33935,-1.88882,SK23 0
50,Malden Rushett,Kingston upon Thames Greater London,England,TQ1761,51.34045,-0.31449,KT9 2
51,Maldon,Essex,England,TL8407,51.73584,0.67057,CM9 6
52,Malehurst,Shropshire,England,SJ3806,52.65273,-2.91054,SY5 0
53,Malham,North Yorkshire,England,SD9062,54.05836,-2.14662,BD23 4
54,Maligar,Highland,Scotland,NG4864,57.60019,-6.21119,IV51 9
55,Malin Bridge,South Yorkshire,England,SK3289,53.40133,-1.51266,S6 4
56,Malinslee,Shropshire,England,SJ6908,52.67334,-2.4525,TF3 2
57,Malkin's Bank,Cheshire,England,SJ7659,53.13214,-2.35269,CW11 4
58,Mallaig/Malaig,Highland,Scotland,NM6796,57.00094,-5.83007,PH41 4
59,Mallaigmore,Highland,Scotland,NM6997,57.0109,-5.79813,PH41 4
60,Malleny Mills,City of Edinburgh,Scotland,NT1665,55.8754,-3.33612,EH14 7
61,Mallows Green,Essex,England,TL4726,51.9175,0.14327,CM23 1
62,Malltraeth,Isle of Anglesey,Wales,SH4068,53.18961,-4.38873,LL62 5
63,Mallwyd,Gwynedd,Wales,SH8612,52.69824,-3.68101,SY20 9
64,Malmesbury,Wiltshire,England,ST9387,51.58632,-2.09521,SN16 9
65,Malmsmead,Devon,England,SS7947,51.21395,-3.7266,EX35 6
66,Malpas,Cheshire,England,SJ4847,53.0223,-2.76922,SY14 7
67,Malpas,Newport,Wales,ST3090,51.60903,-3.00503,NP20 6
68,Malpas,Berkshire,England,SU6372,51.44794,-1.08763,RG7 5
69,Malpas,Cornwall,England,SW8442,50.24311,-5.02374,TR1 1
70,Malswick,Gloucestershire,England,SO7425,51.92743,-2.37224,GL18 1
71,Maltby,County Durham,England,NZ4613,54.51468,-1.28325,TS8 0
72,Maltby,South Yorkshire,England,SK5292,53.42669,-1.21138,S66 8
73,Maltby,Lincolnshire,England,TF3184,53.34106,-0.02635,LN11 9
74,Maltby le Marsh,Lincolnshire,England,TF4681,53.31018,0.19739,LN13 0
75,Malting End,Suffolk,England,TL7454,52.16119,0.54975,CB8 8
76,Maltman's Hill,Kent,England,TQ9043,51.15903,0.72293,TN27 8
77,Malton,North Yorkshire,England,SE7871,54.13336,-0.80009,YO17 7
78,Malvern Common,Worcestershire,England,SO7844,52.09842,-2.31527,WR14 3
79,Malvern Link,Worcestershire,England,SO7847,52.12539,-2.31546,WR14 2
80,Malvern Wells,Worcestershire,England,SO7742,52.0804,-2.32974,WR14 4
81,Mambeg,Argyll and Bute,Scotland,NS2389,56.06568,-4.83673,G84 0
82,Mamble,Worcestershire,England,SO6871,52.34067,-2.46377,DY14 9
83,Mamhilad,Monmouthshire,Wales,SO3003,51.72589,-3.00762,NP4 0
84,Man's Cross,Essex,England,TL7538,52.01717,0.55612,CO9 4
85,Manaccan,Cornwall,England,SW7625,50.08748,-5.12578,TR12 6
86,Manadon,Devon,England,SX4758,50.40653,-4.14743,PL5 3
87,Manafon,Powys,Wales,SJ1102,52.61304,-3.30849,SY21 8
88,Manais,Na h-Eileanan an Iar,Scotland,NG1089,57.80119,-6.87482,HS3 3
89,Manaton,Devon,England,SX7581,50.61988,-3.76129,TQ13 9
90,Manby,Lincolnshire,England,TF3986,53.35698,0.0946,LN11 8
91,Mancetter,Warwickshire,England,SP3196,52.56542,-1.53672,CV9 2
92,Manchester,Greater Manchester,England,SJ8398,53.48296,-2.25011,M3 5
93,Mancot Royal,Flintshire,Wales,SJ3266,53.19128,-3.01172,CH5 3
94,Manea,Cambridgeshire,England,TL4889,52.48322,0.1854,PE15 0
95,Maney,West Midlands,England,SP1295,52.5572,-1.81706,B72 1
96,Manfield,North Yorkshire,England,NZ2213,54.5163,-1.65395,DL2 2
97,Mangarstadh,Na h-Eileanan an Iar,Scotland,NB0031,58.17038,-7.09562,HS2 9
98,Mangaster,Shetland Islands,Scotland,HU3270,60.41706,-1.41172,ZE2 9
99,Mangerton,Dorset,England,SY4895,50.7568,-2.73147,DT6 3
100,Mangotsfield,Gloucestershire,England,ST6576,51.48639,-2.49826,BS16 5
101,Mangrove Green,Hertfordshire,England,TL1223,51.8987,-0.36636,LU2 8
102,Manhay,Cornwall,England,SW6930,50.1297,-5.2265,TR13 0
103,Manian-fawr,Ceredigion,Wales,SN1547,52.095,-4.69481,SA43 3
104,Mankinholes,West Yorkshire,England,SD9623,53.70791,-2.0545,OL14 6
105,Manley,Cheshire,England,SJ5071,53.23821,-2.74312,WA6 9
106,Manley,Devon,England,SS9811,50.89403,-3.44457,EX16 4
107,Manley Common,Cheshire,England,SJ5272,53.24738,-2.71331,WA6 9
108,Manmoel,Caerphilly,Wales,SO1703,51.72413,-3.1958,NP12 0
109,Mannal,Argyll and Bute,Scotland,NL9840,56.45987,-6.89626,PA77 6
110,Mannamead,Devon,England,SX4856,50.38882,-4.13256,PL3 4
111,Mannerston,Falkirk,Scotland,NT0478,55.98993,-3.53244,EH49 7
112,Manningford Abbots,Wiltshire,England,SU1458,51.32542,-1.79329,SN9 6
113,Manningford Bohune,Wiltshire,England,SU1357,51.31645,-1.80768,SN9 6
114,Manningford Bruce,Wiltshire,England,SU1358,51.32544,-1.80764,SN9 6
115,Manningham,West Yorkshire,England,SE1534,53.80657,-1.76612,BD8 7
116,Mannings Heath,West Sussex,England,TQ2028,51.04323,-0.28251,RH13 6
117,Mannington,Dorset,England,SU0605,50.84898,-1.90904,BH21 7
118,Manningtree,Essex,England,TM1031,51.94216,1.06116,CO11 2
119,Mannofield,Aberdeen City,Scotland,NJ9104,57.13134,-2.14205,AB15 7
120,Manod,Gwynedd,Wales,SH7044,52.98215,-3.93035,LL41 4
121,Manor Bourne,Devon,England,SX4949,50.32616,-4.1157,PL9 0
122,Manor Estate,South Yorkshire,England,SK3885,53.36497,-1.42291,S2 1
123,Manor Hill Corner,Lincolnshire,England,TF4017,52.73688,0.07956,PE12 0
124,Manor House,West Midlands,England,SP3682,52.43926,-1.46449,CV2 1
125,Manor Park,West Yorkshire,England,SE1547,53.92341,-1.76546,LS29 7
126,Manor Park,Cheshire,England,SJ6965,53.18571,-2.45788,CW10 0
127,Manor Park,South Yorkshire,England,SK3786,53.37403,-1.43781,S2 1
128,Manor Park,Nottinghamshire,England,SK5733,52.89588,-1.14672,NG11 6
129,Manor Park,Buckinghamshire,England,SP8214,51.82304,-0.80439,HP20 1
130,Manor Park,Berkshire,England,SU9681,51.52418,-0.61043,SL1 3
131,Manor Park,Newham Greater London,England,TQ4285,51.5504,0.05385,E12 6
132,Manor Park,East Sussex,England,TQ4721,50.97403,0.09954,TN22 1
133,Manor Parsley,Cornwall,England,SW7046,50.27376,-5.2222,TR16 5
134,Manor Powis,Stirling,Scotland,NS8295,56.13769,-3.89237,FK9 5
135,Manor Royal,West Sussex,England,TQ2638,51.13181,-0.19347,RH11 7
136,Manor The,West Sussex,England,SU8404,50.83387,-0.80144,PO19 3
137,Manorbier,Pembrokeshire,Wales,SS0697,51.64292,-4.798,SA70 7
138,Manorbier Newton,Pembrokeshire,Wales,SS0499,51.66019,-4.82798,SA70 8
139,Manordeilo,Carmarthenshire,Wales,SN6626,51.92097,-3.94265,SA19 7
140,Manorhill,Scottish Borders,Scotland,NT6632,55.58498,-2.533,TD5 7
141,Manorowen,Pembrokeshire,Wales,SM9336,51.98847,-5.00887,SA65 9
142,Mansegate,Dumfries and Galloway,Scotland,NX8783,55.13305,-3.7661,DG2 0
143,Mansel Lacy,Herefordshire,England,SO4245,52.10483,-2.84093,HR4 7
144,Manselfield,Swansea,Wales,SS5988,51.5778,-4.02901,SA3 3
145,Mansell Gamage,Herefordshire,England,SO3944,52.09552,-2.88455,HR4 7
146,Manselton,Swansea,Wales,SS6595,51.64217,-3.94516,SA5 9
147,Mansergh,Cumbria,England,SD6082,54.23667,-2.60753,LA6 2
148,Mansewood,Glasgow City,Scotland,NS5660,55.81637,-4.29175,G43 2
149,Mansfield,East Ayrshire,Scotland,NS6214,55.4051,-4.1731,KA18 4
150,Mansfield,Nottinghamshire,England,SK5361,53.14796,-1.20154,NG18 1
151,Mansfield Woodhouse,Nottinghamshire,England,SK5463,53.16584,-1.18625,NG19 9
152,Manson Green,Norfolk,England,TG0203,52.59156,0.98812,NR9 4
153,Mansriggs,Cumbria,England,SD2980,54.21536,-3.0826,LA12 7
154,Manston,West Yorkshire,England,SE3634,53.80552,-1.44724,LS15 8
155,Manston,Dorset,England,ST8115,50.93864,-2.26466,DT10 1
156,Manston,Kent,England,TR3466,51.34916,1.36618,CT12 5
157,Manswood,Dorset,England,ST9708,50.87599,-2.0369,BH21 5
158,Manthorpe,Lincolnshire,England,SK9137,52.92712,-0.64032,NG31 8
159,Manthorpe,Lincolnshire,England,TF0715,52.72647,-0.40963,PE10 0
160,Mantles Green,Buckinghamshire,England,SU9597,51.66817,-0.62049,HP7 0
161,Manton,Lincolnshire,England,SE9302,53.51088,-0.59154,DN21 4
162,Manton,Nottinghamshire,England,SK5978,53.30012,-1.10867,S80 2
163,Manton,Rutland,England,SK8804,52.63105,-0.69384,LE15 8
164,Manton,Wiltshire,England,SU1768,51.41525,-1.74975,SN8 4
165,Manton Warren,Lincolnshire,England,SE9305,53.53784,-0.59065,DN21 4
166,Manuden,Essex,England,TL4926,51.91696,0.17233,CM23 1
167,Manwood Green,Essex,England,TL5412,51.78982,0.23872,CM17 0
168,Manywells Height,West Yorkshire,England,SE0635,53.81574,-1.90276,BD13 5
169,Maperton,Somerset,England,ST6726,51.03693,-2.46489,BA9 8
170,Maple Cross,Hertfordshire,England,TQ0392,51.62181,-0.50633,WD3 9
171,Maple End,Essex,England,TL5937,52.01301,0.32271,CB10 2
172,Maplebeck,Nottinghamshire,England,SK7160,53.13687,-0.93268,NG22 0
173,Mapledurham,Oxfordshire,England,SU6776,51.48344,-1.02932,RG4 7
174,Mapledurwell,Hampshire,England,SU6851,51.25856,-1.01973,RG25 2
175,Maplehurst,West Sussex,England,TQ1924,51.00748,-0.29808,RH13 6
176,Mapleton,Derbyshire,England,SK1647,53.02454,-1.75545,DE6 2
177,Mapperley,Derbyshire,England,SK4343,52.98708,-1.35347,DE7 6
178,Mapperley,Nottinghamshire,England,SK5843,52.98565,-1.13006,NG5 4
179,Mapperley Park,Nottinghamshire,England,SK5742,52.97677,-1.14513,NG3 5
180,Mapperton,Dorset,England,SY5099,50.79294,-2.70366,DT8 3
181,Mapperton,Dorset,England,SY9098,50.78599,-2.13613,DT11 9
182,Mappleborough Green,Warwickshire,England,SP0865,52.28757,-1.87681,B80 7
183,Mappleton,East Riding of Yorkshire,England,TA2244,53.88223,-0.13788,HU18 1
184,Mapplewell,South Yorkshire,England,SE3209,53.58109,-1.51059,S75 6
185,Mappowder,Dorset,England,ST7306,50.8574,-2.37786,DT10 2
186,MÕ_raig,Na h-Eileanan an Iar,Scotland,NB2006,57.95972,-6.72712,HS3 3
187,Marazanvose,Cornwall,England,SW8050,50.31348,-5.0844,TR4 9
188,Marazion,Cornwall,England,SW5130,50.12243,-5.47788,TR17 0
189,Marbhig,Na h-Eileanan an Iar,Scotland,NB4118,58.07987,-6.38647,HS2 9
190,Marbury,Cheshire,England,SJ5545,53.00495,-2.6646,SY13 4
191,March,South Lanarkshire,Scotland,NS9914,55.41408,-3.58905,ML12 6
192,March,Cambridgeshire,England,TL4196,52.54796,0.08537,PE15 9
193,Marcham,Oxfordshire,England,SU4596,51.66544,-1.34353,OX13 6
194,Marchamley,Shropshire,England,SJ5929,52.86145,-2.60299,SY4 5
195,Marchamley Wood,Shropshire,England,SJ5931,52.87943,-2.60324,SY4 5
196,Marchington,Staffordshire,England,SK1330,52.87181,-1.80088,ST14 8
197,Marchington Woodlands,Staffordshire,England,SK1128,52.85388,-1.83066,ST14 8
198,Marchwiel,Wrexham,Wales,SJ3547,53.02089,-2.963,LL13 0
199,Marchwood,Hampshire,England,SU3810,50.89271,-1.45398,SO40 4
200,Marcross,The Vale of Glamorgan,Wales,SS9269,51.41429,-3.54719,CF61 1